{
  "data": [
    {
      "id": 3,
      "title": "Hottest MILF",
      "key": "hottest-milf",
      "orientation": "vertical",
      "isFan": true,
      "type": {
        "id": 1,
        "title": "Profile",
        "key": "PROFILE",
        "description": "popularity award. best newcomer, hall of fame award, etc. no related movie just the persons name."
      },
      "group": null
    },
    {
      "id": 6,
      "title": "Favorite Male Performer",
      "key": "favorite-male-performer",
      "orientation": "vertical",
      "isFan": true,
      "type": {
        "id": 1,
        "title": "Profile",
        "key": "PROFILE",
        "description": "popularity award. best newcomer, hall of fame award, etc. no related movie just the persons name."
      },
      "group": null
    },
    {
      "id": 9,
      "title": "Favorite Trans Porn Star",
      "key": "favorite-trans-performer",
      "orientation": "vertical",
      "isFan": true,
      "type": {
        "id": 1,
        "title": "Profile",
        "key": "PROFILE",
        "description": "popularity award. best newcomer, hall of fame award, etc. no related movie just the persons name."
      },
      "group": null
    },
    {
      "id": 12,
      "title": "Favorite Female Performer",
      "key": "favorite-female-performer",
      "orientation": "vertical",
      "isFan": true,
      "type": {
        "id": 1,
        "title": "Profile",
        "key": "PROFILE",
        "description": "popularity award. best newcomer, hall of fame award, etc. no related movie just the persons name."
      },
      "group": {
        "id": 5,
        "title": "Fan Awards",
        "key": "fan_awards",
        "description": null
      }
    },
    {
      "id": 15,
      "title": "Hottest Newcomer",
      "key": "hottest-newcomer",
      "orientation": "vertical",
      "isFan": true,
      "type": {
        "id": 1,
        "title": "Profile",
        "key": "PROFILE",
        "description": "popularity award. best newcomer, hall of fame award, etc. no related movie just the persons name."
      },
      "group": null
    },
    {
      "id": 21,
      "title": "Most Spectacular Boobs",
      "key": "most-spectacular-boobs",
      "orientation": "vertical",
      "isFan": true,
      "type": {
        "id": 1,
        "title": "Profile",
        "key": "PROFILE",
        "description": "popularity award. best newcomer, hall of fame award, etc. no related movie just the persons name."
      },
      "group": null
    },
    {
      "id": 24,
      "title": "Social Media Star",
      "key": "social-media-star",
      "orientation": "vertical",
      "isFan": true,
      "type": {
        "id": 1,
        "title": "Profile",
        "key": "PROFILE",
        "description": "popularity award. best newcomer, hall of fame award, etc. no related movie just the persons name."
      },
      "group": null
    },
    {
      "id": 33,
      "title": "Favorite Cam Girl",
      "key": "favorite-cam-girl",
      "orientation": "vertical",
      "isFan": true,
      "type": {
        "id": 1,
        "title": "Profile",
        "key": "PROFILE",
        "description": "popularity award. best newcomer, hall of fame award, etc. no related movie just the persons name."
      },
      "group": null
    },
    {
      "id": 36,
      "title": "Favorite Cam Guy ",
      "key": "favorite-cam-guy",
      "orientation": "vertical",
      "isFan": true,
      "type": {
        "id": 1,
        "title": "Profile",
        "key": "PROFILE",
        "description": "popularity award. best newcomer, hall of fame award, etc. no related movie just the persons name."
      },
      "group": null
    },
    {
      "id": 39,
      "title": "Favorite Trans Cam Star",
      "key": "favorite-trans-cam-performer",
      "orientation": "vertical",
      "isFan": true,
      "type": {
        "id": 1,
        "title": "Profile",
        "key": "PROFILE",
        "description": "popularity award. best newcomer, hall of fame award, etc. no related movie just the persons name."
      },
      "group": null
    },
    {
      "id": 42,
      "title": "Favorite Camming Couple ",
      "key": "favorite-camming-couple",
      "orientation": "vertical",
      "isFan": true,
      "type": {
        "id": 1,
        "title": "Profile",
        "key": "PROFILE",
        "description": "popularity award. best newcomer, hall of fame award, etc. no related movie just the persons name."
      },
      "group": null
    },
    {
      "id": 57,
      "title": "Hottest Ass",
      "key": "hottest-ass",
      "orientation": "vertical",
      "isFan": true,
      "type": {
        "id": 1,
        "title": "Profile",
        "key": "PROFILE",
        "description": "popularity award. best newcomer, hall of fame award, etc. no related movie just the persons name."
      },
      "group": null
    },
    {
      "id": 118,
      "title": "Favorite Porn Star Website",
      "key": "favorite-porn-star-website",
      "orientation": "vertical",
      "isFan": true,
      "type": {
        "id": 1,
        "title": "Profile",
        "key": "PROFILE",
        "description": "popularity award. best newcomer, hall of fame award, etc. no related movie just the persons name."
      },
      "group": null
    },
    {
      "id": 428,
      "title": "Favorite BBW Performer",
      "key": "favorite-bbw-performer",
      "orientation": "vertical",
      "isFan": true,
      "type": {
        "id": 1,
        "title": "Profile",
        "key": "PROFILE",
        "description": "popularity award. best newcomer, hall of fame award, etc. no related movie just the persons name."
      },
      "group": {
        "id": 5,
        "title": "Fan Awards",
        "key": "fan_awards",
        "description": null
      }
    },
    {
      "id": 431,
      "title": "Favorite Camming Cosplayer",
      "key": "favorite-camming-cosplayer",
      "orientation": "vertical",
      "isFan": true,
      "type": {
        "id": 1,
        "title": "Profile",
        "key": "PROFILE",
        "description": "popularity award. best newcomer, hall of fame award, etc. no related movie just the persons name."
      },
      "group": {
        "id": 5,
        "title": "Fan Awards",
        "key": "fan_awards",
        "description": null
      }
    }
  ],
  "links": {
    "first": "https:\/\/api.avn.com\/awards\/events\/91\/categories\/fan?page=1",
    "last": "https:\/\/api.avn.com\/awards\/events\/91\/categories\/fan?page=2",
    "prev": null,
    "next": "https:\/\/api.avn.com\/awards\/events\/91\/categories\/fan?page=2"
  },
  "meta": {
    "current_page": 1,
    "from": 1,
    "last_page": 2,
    "path": "https:\/\/api.avn.com\/awards\/events\/91\/categories\/fan",
    "per_page": 15,
    "to": 15,
    "total": 16
  }
}